Permutation inference for the augsynth package
…
#> $names
#> [1] "att"         "average_att" "inf_type"

Permutation inference

Adding permutation inference (via
inf_type = "permutation" or
inf_type = "permutation_rstat") will return information
about the 95% confidence interval, as well as other data generated from
the raw placebo tests. Placebo results can be gotten via the
placebo_distribution() method:

placebo_distribution( syn_rstat )

#> # A tibble: 1,404 × 8
#>    state     trt  year  Yhat  Yobs     ATT RMSPE   rstat
#>    <chr>   <dbl> <dbl> <dbl> <dbl>   <dbl> <dbl>   <dbl>
#>  1 Alabama     0  1970  91.6  89.8 -1.77    1.19 -1.50  
#>  2 Alabama     0  1971  96.6  95.4 -1.25    1.19 -1.05  
#>  3 Alabama     0  1972  99.8 101.   1.31    1.19  1.10  
#>  4 Alabama     0  1973 104.  103.  -1.08    1.19 -0.915 
#>  5 Alabama     0  1974 108.  108.   0.0430  1.19  0.0363
#>  6 Alabama     0  1975 112.  112.  -0.0284  1.19 -0.0240
#>  7 Alabama     0  1976 115.  116.   1.27    1.19  1.07  
#>  8 Alabama     0  1977 117.  117.  -0.0985  1.19 -0.0831
#>  9 Alabama     0  1978 120.  123    2.57    1.19  2.17  
#> 10 Alabama     0  1979 120.  121.   1.38    1.19  1.16  
#> # ℹ 1,394 more rows
…
Examining donor units and RMSPE

The donor_table() function will return a summary
dataframe with the RMSPE and synthetic weight for each of the donor
units.

donor_table(syn) %>%
    arrange( -abs(weight) )

#> # A tibble: 38 × 2
#>    state           weight
#>    <chr>            <dbl>
#>  1 Colorado        0.483 
#>  2 Connecticut     0.404 
#>  3 Utah            0.156 
#>  4 Nevada          0.106 
#>  5 Mississippi    -0.0672
#>  6 Arkansas       -0.0658
#>  7 Tennessee      -0.0500
#>  8 North Carolina  0.0415
#>  9 Virginia        0.0397
#> 10 Wyoming         0.0365
#> # ℹ 28 more rows
…
